{
    "florianopolis": {
        "trip-address": "florianopolis",
        "title": "Praias de Florianópolis",
        "images": "praias-de-florianopolis",
        "banner": "paraty",
        "image-video": "video-florianopolis.jpg",
        "address": "Estação Santo Amaro - Av. Padre José Maria, 1420 - Santo Amaro, São Paulo - SP, 04753-060",
        "address2": "São Paulo",
        "address3": "Vamos sair da Estação Santo Amaro - Av. Padre José Maria, 1420 - Santo Amaro, São Paulo - SP, 04753-060 :)",
        "route": [{
                "entry-time": "Dia 17",
                "exit-time": "Sexta-feira",
                "title": "Saída da Van",
                "description": "<strong>Noite:</strong> Saída às 21h30 da Estação Santo Amaro - Av. Padre José Maria, 1420 - Santo Amaro, São Paulo - SP, 04753-060 (tolerância de 30 minutos, o não comparecimento após o prazo de tolerância indicará desistência por parte do cliente, sem ressarcimento de valores)."
            },
            {
                "entry-time": "Dia 18",
                "exit-time": "Sábado",
                "title": "Onde Tudo se inicia",
                "description": "<strong>Manhã:</strong> Café da manhã e após caminhada de 15 minutos a Prainha da Barra da Lagoa e a Piscina Natural da Praia da Barra da Lagoa. Retorno por volta de 12h00 (almoço não incluído, os hóspedes poderão almoçar nos restaurantes próximo a pousada). <br /><strong>Tarde:</strong> Livre na pousada ou livre na Praia da Barra da Lagoa (esta praia fica a uma quadra da pousada, próximo há também algumas lojas, comércios e o projeto Tamar disponíveis para visitação). <br /><strong>Noite:</strong>  20h00: Luau com open bar de cerveja, refrigerante, frutas, petiscos e música ao vivo na pousada.<br /> ."
            },
            {
                "entry-time": "Dia 19",
                "exit-time": "Domingo:",
                "title": "City tour",
                "description": "<strong>Manhã:</strong> Café da manhã: das 08h00 às 08h50. Saída às 08h50 (tolerância de 15 minutos). <br> Visita à: Mirante da Mole e Praia Mole.<br><strong>Parada para o almoço:</strong> Escolher a opção no dia do tour: Lagoa da Conceição ou Costa da Lagoa com passeio de escuna. Você poderá optar por conhecer a Lagoa da Conceição e almoçar em seus restaurantes ou então pegar a escuna (que possui um valor super acessível, não incluso no pacote) e almoçar nos restaurantes da Costa da Lagoa. <strong>Obs 1:</strong> Quem ficar na Lagoa da Conceição terá um passeio livre por aproximadamente 3 horas sem guia. Este é um bairro badalado da cidade, cheio de restaurantes, barzinhos e lojas. Conta um pequeno shopping e com a famosa Avenida das Rendeiras. <strong>Obs 2:</strong> O almoço na Lagoa da Conceição ou Costa da Lagoa e passeio de escuna não estão incluídos no pacote. <br/><strong>Tarde:</strong> Visita à Praia do Matadeiro e Praia da Armação. <br><strong>Noite:</strong> Livre para jantar nos restaurantes próximos à pousada (jantar não incluso no pacote) / Pré organização das malas para retorno."
            },
            {
                "entry-time": "Dia 20",
                "exit-time": "Segunda",
                "title": "Volta para casa",
                "description": "<strong>Manhã:</strong>  Café da manhã: das 08h00 às 09h00 <br>  Embarque de malas no ônibus: 09h00 às 09h20<br> Embarque de passageiros no ônibus: 09h20 às 09h30<br>Saída para o Mirante da Lagoa da Conceição: 09h30<br>  Retorno para São Paulo: 10h30 (tolerância de 15 minutos)<br><strong>Tarde:</strong> Almoço na estrada (não incluso no pacote): 13h00 até 13h45 (tolerância de 15 Minutos) <br><strong>Noite:</strong> Chegada em São Paulo: 22h00/23h00 em Estação Santo Amaro - Av. Padre José Maria, 1420 - Santo Amaro, São Paulo"
            }
        ],
        "date": "17 a 20 de Novembro, 2017",
        "description": "Capital de Santa Catarina, Florianópolis é conhecida como a Ilha da Magia por possuir diversos encantos naturais. É composta por continente e ilha, no qual ambos são unidos por uma ponte histórica que é um dos cartões postais da cidade. <br /> <br /> Com desconto de 30%, nesta primeira viagem a Floripa (apelido utilizado carinhosamente pelos moradores locais e turistas) iremos visitar a parte leste e sul da ilha.",
        "short-description": "FINALIZADO",
        "rota-description": "Conheça nosso roteiro, iremos passar por várias praias. Terá um luau com violão e muita diversão em um feriadão. Explore Florianópolis com a gente.",
        "link-book-now" : "https://www.eventbrite.com.br/e/trip-praias-de-florianopolis-ilha-da-magia-tickets-38468835322?aff=es2#tickets",
        "ifrime-eventbrite" : "<iframe src='//eventbrite.com.br/tickets-external?eid=38468835322&ref=etckt' frameborder='0' height='700' width='100%'' vspace='0' hspace='0' marginheight='5' marginwidth='5' scrolling='auto' allowtransparency='true'></iframe><div style='font-family:Helvetica, Arial; font-size:12px; padding:10px 0 5px; margin:2px; width:100%; text-align:left;' ><a class='powered-by-eb' style='color: #ADB0B6; text-decoration: none;' target='_blank' href='http://www.eventbrite.com.br/'>Com tecnologia Eventbrite</a></div>",
        "allin-incluso" : "- Pousada com piscina a uma quadra do mar <br> - 3 cafés da manhã<br>- Ida e volta em van confortável<br> - Luau com open bar de cerveja, refrigerante, petiscos e música ao vivo (no sábado a noite)<br>  - Tour pelo sul da ilha (no domingo)<br>",
        "visit-incluso" : "- Praia Barra da Lagoa <br> - Prainha da Barra da Lagoa <br> - Praia Mole <br> - Praia da Armação <br> - Praia do Matadeiro <br> - Piscina natural marítima <br> - Mirantes  <br> - Lagoa da Conceição ou Costa da Lagoa* <br>- Passeio de barco* <br>- Projeto Tamar* 🐢 <br>"
    },
    "paraty": {
        "trip-address": "paraty",
        "title": "PARATY com passeio de escuna <br />",
        "images": "paraty",
        "banner": "paraty",
        "image-video": "paraty.jpg",
        "address": " R. Funchal, 446",
        "address2": "São Paulo",
        "address3": "A saída será dia 13/04/2018 às 20h00 do Estacionamento Guardian localizado na Rua Funchal, 446, Vila Olímpia,  São Paulo / SP, CEP: 04551-060 :)",
        "route": [{
                "entry-time": "Dia 13",
                "exit-time": "Sexta-feira",
                "title": "<strong>Saída do ônibus</strong>",
                "description": " <br /> - 20h00: Bora viajar! Saída da Estação Santo Amaro - São Paulo/SP <br /> - 01h00: Check in na Pousada em Paraty/RJ"
            },
            {
                "entry-time": "Dia 14",
                "exit-time": "Sábado",
                "title": "<strong>Onde Tudo se inicia</strong>",
                "description": " <br />- Das 08h00 às 09h00: Café da manhã na pousada (incluso no pacote) <br /> - Das 09h00 às 10h00: Piscina da Pousada / descanso <br /> - 10h00: Saída a pé para o passeio de escuna de 5 horas (ou livre no Centro Histórico sem guia) <br /> - 20h00:* passeio pela Rua das Cachaçarias (10 min a pé da pousada) <br /> *Jantar livre, não incluído no pacote <br /> <br /> <strong>De escuna visitaremos:*  </strong><br /> - Praia da Lula <br /> - Lagoa Azul <br /> - Ilha Comprida <br />- Ilha Vermelha <br /> *Almoço na escuna não incluído no pacote. Valor estimado em aproximadamente R$50,00 por pessoa."
            },
            {
                "entry-time": "Dia 15",
                "exit-time": "Domingo",
                "title": "<strong>Onde Tudo se inicia</strong>",
                "description": " <br />- Das 08h00 às 09h00: Café da manhã na pousada (incluso no pacote)<br />- 9h00: Livre na Praia do Pontal com guia (menos de 20 min a pé da pousada) ou livre no Centro Histórico sem guia (menos de 15 min a pé da pousada)<br />- 11h30: almoço livre*<br />*Almoço não incluído no pacote<br />- 12h30: Retorno a pé da praia (ou do Centro Histórico) para a Pousada<br />- 13h00: Hora do banho e de arrumar as malas<br />- 13h45: Hora de voltar! Check out da Pousada<br />- 14h00: Embarque no ônibus e retorno para SP<br />- 21h00: Chegada na Estação Santo Amaro - São Paulo/SP"
            }
        ],
        "date": " Trip 13 a 15 de Abril, 2018 ",
        "description": "Paraty, cidade linda e histórica, com diversas atrações. Na maravilhosa baía de Paraty faremos um passeio de escuna com duração de 5 horas com 4 paradas por praias e ilhas. Ficaremos em cada um destes locais por aproximadamente 1 hora para relaxar, nadar ou simplesmente desfrutar de uma praia ou do um almoço delicioso (opcional) a bordo da embarcação.",
        "short-description": "Conheça nosso roteiro, iremos passar por várias praias. <br />     Explore Paraty com a gente.",
        "rota-description": "Conheça nosso roteiro, iremos passar por várias praias. Explore Paraty com a gente.",
        "link-book-now" : "https://www.eventbrite.com.br/e/paraty-rj-com-passeio-de-escuna-tickets-41874377390#tickets",
        "ifrime-eventbrite" : "<div style='width:100%; text-align:left;''><iframe src='https://eventbrite.com.br/tickets-external?eid=41874377390&ref=etckt' frameborder='0' height='493' width='100%' vspace='0' hspace='0' marginheight='5' marginwidth='5' scrolling='auto' allowtransparency='true'></iframe><div style='font-family:Helvetica, Arial; font-size:12px; padding:10px 0 5px; margin:2px; width:100%; text-align:left;'><a class='powered-by-eb' style='color: #ADB0B6; text-decoration: none;' target='_blank' href='https://www.eventbrite.com.br/'>Com tecnologia Eventbrite</a></div></div>",
        "allin-incluso" : "-Transporte executivo <br />- Passeio de escuna com duração de 5 horas (4 paradas: Praia da Lula, Ilha Comprida, Lagoa Azul e Ilha Vermelha) <br /> - 2 diárias com café da manhã em uma linda pousada com piscina  <br> - Passeio na Rua das Cachaçarias <br /> - Passeio na Praia do Pontal",
        "no-incluso" : "- Almoços ou jantares <br /> - Bebidas <br /> - Passeios ou serviços não mencionados",
        "visit-incluso" : "  - Praia da Lula <br />- Lagoa Azul  <br />- Ilha Comprida <br />- Ilha Vermelha <br />- Praia do Pontal <br /> - Rua das Cachaçarias"
    }
}