{
    "home-index": "Praias de Florianópolis, venha conhecer a ilha da magia! Trip é com Locatrip",
    "city-trip-florianopolis": "Praias de Florianópolis, venha conhecer a ilha da magia! Trip é com Locatrip"
}